test.vcd
$date
	Thu Dec 20 12:59:31 2018
$end
$version
	Icarus Verilog
$end
$timescale
	1s
$end
$scope module test_main $end
$var wire 32 ! memout [31:0] $end
$var wire 32 " inst [31:0] $end
$var wire 32 # aluout [31:0] $end
$var wire 32 $ addr [31:0] $end
$var reg 1 % Clock $end
$var reg 1 & Reset $end
$scope module main $end
$var wire 1 % Clk $end
$var wire 1 & Clrn $end
$var wire 1 ' wmem $end
$var wire 32 ( memout [31:0] $end
$var wire 32 ) inst [31:0] $end
$var wire 32 * data [31:0] $end
$var wire 32 + aluout [31:0] $end
$var wire 32 , addr [31:0] $end
$scope module cpu $end
$var wire 1 % Clk $end
$var wire 1 & Clrn $end
$var wire 1 - e $end
$var wire 5 . wn [4:0] $end
$var wire 1 / zero $end
$var wire 1 0 wreg $end
$var wire 16 1 sign [15:0] $end
$var wire 1 2 shift $end
$var wire 1 3 se $end
$var wire 32 4 sa [31:0] $end
$var wire 32 5 res [31:0] $end
$var wire 1 6 regrt $end
$var wire 5 7 reg_dest [4:0] $end
$var wire 1 8 reg2reg $end
$var wire 32 9 ra [31:0] $end
$var wire 32 : p4 [31:0] $end
$var wire 32 ; offset [31:0] $end
$var wire 32 < npc [31:0] $end
$var wire 32 = jpc [31:0] $end
$var wire 1 > jal $end
$var wire 32 ? immdiate [31:0] $end
$var wire 1 @ aluqb $end
$var wire 4 A aluc [3:0] $end
$var wire 32 B alub [31:0] $end
$var wire 32 C alua [31:0] $end
$var wire 32 D alu_mem [31:0] $end
$var wire 32 E adr [31:0] $end
$var wire 1 ' Wmem $end
$var wire 2 F Pcsrc [1:0] $end
$var wire 32 G Inst [31:0] $end
$var wire 32 H Iaddr [31:0] $end
$var wire 32 I Dwirte [31:0] $end
$var wire 32 J Dread [31:0] $end
$var wire 32 K Daddr [31:0] $end
$scope module CU $end
$var wire 1 @ Aluqb $end
$var wire 6 L Func [5:0] $end
$var wire 6 M Op [5:0] $end
$var wire 1 8 Reg2reg $end
$var wire 1 6 Regrt $end
$var wire 1 3 Se $end
$var wire 1 2 Shift $end
$var wire 1 ' Wmem $end
$var wire 1 0 Wreg $end
$var wire 1 > jal $end
$var wire 1 N i_xori $end
$var wire 1 O i_xor $end
$var wire 1 P i_sw $end
$var wire 1 Q i_sub $end
$var wire 1 R i_srl $end
$var wire 1 S i_sra $end
$var wire 1 T i_sll $end
$var wire 1 U i_ori $end
$var wire 1 V i_or $end
$var wire 1 W i_lw $end
$var wire 1 X i_lui $end
$var wire 1 Y i_jr $end
$var wire 1 Z i_jal $end
$var wire 1 [ i_j $end
$var wire 1 \ i_bne $end
$var wire 1 ] i_beq $end
$var wire 1 ^ i_andi $end
$var wire 1 _ i_and $end
$var wire 1 ` i_addi $end
$var wire 1 a i_add $end
$var wire 1 / Z $end
$var wire 2 b Pcsrc [1:0] $end
$var wire 4 c Aluc [3:0] $end
$upscope $end
$scope module alu $end
$var wire 4 d Aluc [3:0] $end
$var wire 32 e d_and [31:0] $end
$var wire 32 f d_or [31:0] $end
$var wire 32 g d_xor [31:0] $end
$var wire 32 h d_xor_lui [31:0] $end
$var wire 32 i d_sh [31:0] $end
$var wire 32 j d_lui [31:0] $end
$var wire 32 k d_as [31:0] $end
$var wire 32 l d_and_or [31:0] $end
$var wire 1 / Z $end
$var wire 32 m Y [31:0] $end
$var wire 32 n X [31:0] $end
$var wire 32 o R [31:0] $end
$scope module as32 $end
$var wire 1 p sub $end
$var wire 32 q Result [31:0] $end
$var wire 32 r B [31:0] $end
$var wire 32 s A [31:0] $end
$scope module as32 $end
$var wire 32 t b [31:0] $end
$var wire 1 p c $end
$var wire 32 u s [31:0] $end
$var wire 32 v a [31:0] $end
$upscope $end
$upscope $end
$scope module sel $end
$var wire 32 w A0 [31:0] $end
$var wire 32 x A1 [31:0] $end
$var wire 32 y A2 [31:0] $end
$var wire 2 z S [1:0] $end
$var wire 32 { Y [31:0] $end
$var wire 32 | A3 [31:0] $end
$upscope $end
$scope module shift_1 $end
$var wire 1 } Arith $end
$var wire 1 ~ Right $end
$var wire 5 !" Sa [4:0] $end
$var wire 1 "" a $end
$var wire 16 #" e [15:0] $end
$var wire 32 $" X [31:0] $end
$var wire 32 %" T4 [31:0] $end
$var wire 32 &" T3 [31:0] $end
$var wire 32 '" T2 [31:0] $end
$var wire 32 (" T1 [31:0] $end
$var wire 32 )" T0 [31:0] $end
$var wire 32 *" Sh [31:0] $end
$var wire 32 +" S4 [31:0] $end
$var wire 32 ," S3 [31:0] $end
$var wire 32 -" S2 [31:0] $end
$var wire 32 ." S1 [31:0] $end
$var wire 32 /" L5u [31:0] $end
$var wire 32 0" L5d [31:0] $end
$var wire 32 1" L4u [31:0] $end
$var wire 32 2" L4d [31:0] $end
$var wire 32 3" L3u [31:0] $end
$var wire 32 4" L3d [31:0] $end
$var wire 32 5" L2u [31:0] $end
$var wire 32 6" L2d [31:0] $end
$var wire 32 7" L1u [31:0] $end
$var wire 32 8" L1d [31:0] $end
$scope module M1l $end
$var wire 32 9" A0 [31:0] $end
$var wire 32 :" A1 [31:0] $end
$var wire 1 ~ S $end
$var wire 32 ;" Y [31:0] $end
$upscope $end
$scope module M1r $end
$var wire 32 <" A1 [31:0] $end
$var wire 1 =" S $end
$var wire 32 >" Y [31:0] $end
$var wire 32 ?" A0 [31:0] $end
$upscope $end
$scope module M2l $end
$var wire 32 @" A0 [31:0] $end
$var wire 32 A" A1 [31:0] $end
$var wire 1 ~ S $end
$var wire 32 B" Y [31:0] $end
$upscope $end
$scope module M2r $end
$var wire 32 C" A0 [31:0] $end
$var wire 32 D" A1 [31:0] $end
$var wire 1 E" S $end
$var wire 32 F" Y [31:0] $end
$upscope $end
$scope module M3l $end
$var wire 32 G" A0 [31:0] $end
$var wire 32 H" A1 [31:0] $end
$var wire 1 ~ S $end
$var wire 32 I" Y [31:0] $end
$upscope $end
$scope module M3r $end
$var wire 32 J" A0 [31:0] $end
$var wire 32 K" A1 [31:0] $end
$var wire 1 L" S $end
$var wire 32 M" Y [31:0] $end
$upscope $end
$scope module M4l $end
$var wire 32 N" A0 [31:0] $end
$var wire 32 O" A1 [31:0] $end
$var wire 1 ~ S $end
$var wire 32 P" Y [31:0] $end
$upscope $end
$scope module M4r $end
$var wire 32 Q" A0 [31:0] $end
$var wire 32 R" A1 [31:0] $end
$var wire 1 S" S $end
$var wire 32 T" Y [31:0] $end
$upscope $end
$scope module M5l $end
$var wire 32 U" A0 [31:0] $end
$var wire 32 V" A1 [31:0] $end
$var wire 1 ~ S $end
$var wire 32 W" Y [31:0] $end
$upscope $end
$scope module M5r $end
$var wire 32 X" A0 [31:0] $end
$var wire 32 Y" A1 [31:0] $end
$var wire 1 Z" S $end
$var wire 32 [" Y [31:0] $end
$upscope $end
$upscope $end
$upscope $end
$scope module alu_a $end
$var wire 32 \" A1 [31:0] $end
$var wire 1 2 S $end
$var wire 32 ]" Y [31:0] $end
$var wire 32 ^" A0 [31:0] $end
$upscope $end
$scope module alu_b $end
$var wire 32 _" A1 [31:0] $end
$var wire 1 @ S $end
$var wire 32 `" Y [31:0] $end
$var wire 32 a" A0 [31:0] $end
$upscope $end
$scope module br_adr $end
$var wire 32 b" b [31:0] $end
$var wire 1 c" c $end
$var wire 32 d" s [31:0] $end
$var wire 32 e" a [31:0] $end
$upscope $end
$scope module ip $end
$var wire 1 % Clock $end
$var wire 1 & Reset $end
$var wire 32 f" D [31:0] $end
$var reg 32 g" Q [31:0] $end
$upscope $end
$scope module link $end
$var wire 1 > S $end
$var wire 32 h" Y [31:0] $end
$var wire 32 i" A1 [31:0] $end
$var wire 32 j" A0 [31:0] $end
$upscope $end
$scope module nextpc $end
$var wire 32 k" A1 [31:0] $end
$var wire 32 l" A3 [31:0] $end
$var wire 2 m" S [1:0] $end
$var wire 32 n" Y [31:0] $end
$var wire 32 o" A2 [31:0] $end
$var wire 32 p" A0 [31:0] $end
$upscope $end
$scope module pcplus4 $end
$var wire 32 q" a [31:0] $end
$var wire 32 r" b [31:0] $end
$var wire 1 s" c $end
$var wire 32 t" s [31:0] $end
$upscope $end
$scope module reg_wn $end
$var wire 5 u" A0 [4:0] $end
$var wire 5 v" A1 [4:0] $end
$var wire 1 6 S $end
$var wire 5 w" Y [4:0] $end
$upscope $end
$scope module res_mem $end
$var wire 32 x" A0 [31:0] $end
$var wire 1 8 S $end
$var wire 32 y" Y [31:0] $end
$var wire 32 z" A1 [31:0] $end
$upscope $end
$scope module rf $end
$var wire 1 % Clk $end
$var wire 1 & Clrn $end
$var wire 32 {" D [31:0] $end
$var wire 5 |" Ra [4:0] $end
$var wire 5 }" Rb [4:0] $end
$var wire 1 0 We $end
$var wire 5 ~" Wr [4:0] $end
$var wire 32 !# Qb [31:0] $end
$var wire 32 "# Qa [31:0] $end
$var integer 32 ## i [31:0] $end
$upscope $end
$upscope $end
$scope module dmem $end
$var wire 1 % Clk $end
$var wire 32 $# addr [31:0] $end
$var wire 32 %# datain [31:0] $end
$var wire 32 &# dataout [31:0] $end
$var wire 1 ' we $end
$var integer 32 '# i [31:0] $end
$upscope $end
$scope module imem $end
$var wire 32 (# Addr [31:0] $end
$var wire 32 )# Inst [31:0] $end
$upscope $end
$upscope $end
$upscope $end
$enddefinitions $end
#0
$dumpvars
b111100000000010001000100010001 )#
b0 (#
b100000 '#
b0 &#
b0 %#
b10001000100010000000000000000 $#
b100000 ##
b0 "#
b0 !#
b1 ~"
b1 }"
b0 |"
b10001000100010000000000000000 {"
b0 z"
b10001000100010000000000000000 y"
b10001000100010000000000000000 x"
b1 w"
b1 v"
b10 u"
b100 t"
0s"
b100 r"
b0 q"
b100 p"
b0 o"
b100 n"
b0 m"
b1000100010001000100 l"
b100010001001000 k"
b10001000100010000000000000000 j"
b100 i"
b10001000100010000000000000000 h"
b0 g"
b100 f"
b100 e"
b100010001001000 d"
0c"
b100010001000100 b"
b0 a"
b1000100010001 `"
b1000100010001 _"
b0 ^"
b0 ]"
b100 \"
b1000100010001 ["
0Z"
b10001000100010 Y"
b1000100010001 X"
b10001000100010 W"
b100010001000 V"
b10001000100010 U"
b1000100010001 T"
0S"
b100010001000100 R"
b1000100010001 Q"
b100010001000100 P"
b10001000100 O"
b100010001000100 N"
b1000100010001 M"
0L"
b10001000100010000 K"
b1000100010001 J"
b10001000100010000 I"
b100010001 H"
b10001000100010000 G"
b1000100010001 F"
0E"
b100010001000100000000 D"
b1000100010001 C"
b100010001000100000000 B"
b10001 A"
b100010001000100000000 @"
b1000100010001 ?"
b1000100010001 >"
0="
b10001000100010000000000000000 <"
b10001000100010000000000000000 ;"
b0 :"
b10001000100010000000000000000 9"
b0 8"
b10001000100010000000000000000 7"
b10001 6"
b100010001000100000000 5"
b100010001 4"
b10001000100010000 3"
b10001000100 2"
b100010001000100 1"
b100010001000 0"
b10001000100010 /"
b1000100010001 ."
b1000100010001 -"
b1000100010001 ,"
b1000100010001 +"
b1000100010001 *"
b10001000100010 )"
b100010001000100 ("
b10001000100010000 '"
b100010001000100000000 &"
b10001000100010000000000000000 %"
b1000100010001 $"
b0 #"
0""
b0 !"
0~
1}
b1000100010001 |
b10001000100010000000000000000 {
b10 z
b10001000100010000000000000000 y
b1000100010001 x
b11111111111111111110111011101111 w
b0 v
b11111111111111111110111011101111 u
b11111111111111111110111011101110 t
b0 s
b1000100010001 r
b11111111111111111110111011101111 q
1p
b10001000100010000000000000000 o
b0 n
b1000100010001 m
b1000100010001 l
b11111111111111111110111011101111 k
b10001000100010000000000000000 j
b1000100010001 i
b10001000100010000000000000000 h
b1000100010001 g
b1000100010001 f
b0 e
b110 d
b110 c
b0 b
0a
0`
0_
0^
0]
0\
0[
0Z
0Y
1X
0W
0V
0U
0T
0S
0R
0Q
0P
0O
0N
b1111 M
b10001 L
b0 K
b0 J
b10001000100010000000000000000 I
b0 H
b111100000000010001000100010001 G
b0 F
b100010001001000 E
b10001000100010000000000000000 D
b0 C
b1000100010001 B
b110 A
1@
b1000100010001 ?
0>
b1000100010001000100 =
b100 <
b100010001000100 ;
b100 :
b0 9
08
b1 7
16
b10001000100010000000000000000 5
b100 4
03
02
b0 1
10
0/
b1 .
0-
b0 ,
b10001000100010000000000000000 +
b0 *
b111100000000010001000100010001 )
b0 (
0'
0&
0%
b0 $
b10001000100010000000000000000 #
b111100000000010001000100010001 "
b0 !
$end
#50
b100000 ##
1%
#100
1&
0%
#150
b10 .
b10 ~"
b10 7
b10 w"
b10 v"
b10 }"
b10000100010001000100 =
b10000100010001000100 l"
b1000 <
b1000 f"
b1000 n"
b111100000000100001000100010001 "
b111100000000100001000100010001 )
b111100000000100001000100010001 G
b111100000000100001000100010001 )#
b0 *
b0 K
b0 a"
b0 !#
b0 %#
b100010001001100 E
b100010001001100 d"
b100010001001100 k"
b1000 :
b1000 e"
b1000 i"
b1000 p"
b1000 t"
b100 $
b100 ,
b100 H
b100 g"
b100 q"
b100 (#
1%
#200
0%
#250
b100010001000100000000000000000 )"
b100010001000100000000000000000 W"
b100010001000100000000000000000 Y"
b100010001000100000000000000000 5
b100010001000100000000000000000 h"
b100010001000100000000000000000 {"
b10001000100010000000000000000 i
b10001000100010000000000000000 |
b10001000100010000000000000000 *"
b10001000100010000000000000000 ["
b1000100010001000000000000000 0"
b1000100010001000000000000000 V"
b100010001000100000000000000000 /"
b100010001000100000000000000000 U"
b1000100010001000000000000000000 ("
b1000100010001000000000000000000 P"
b1000100010001000000000000000000 R"
b100010001000100000000000000000 D
b100010001000100000000000000000 j"
b100010001000100000000000000000 y"
b1000100010001 8"
b1000100010001 :"
b10001000100010000000000000000 e
b10001000100010000000000000000 ."
b10001000100010000000000000000 T"
b10001000100010000000000000000 X"
b100010001000100000000000000 2"
b100010001000100000000000000 O"
b1000100010001000000000000000000 1"
b1000100010001000000000000000000 N"
b10001000100000000000000000000 '"
b10001000100000000000000000000 I"
b10001000100000000000000000000 K"
b100010001000100000000000000000 #
b100010001000100000000000000000 +
b100010001000100000000000000000 I
b100010001000100000000000000000 o
b100010001000100000000000000000 {
b100010001000100000000000000000 x"
b100010001000100000000000000000 $#
b11 .
b11 ~"
b10001000100010000000000000000 -"
b10001000100010000000000000000 M"
b10001000100010000000000000000 Q"
b1000100010001000000000000 4"
b1000100010001000000000000 H"
b10001000100000000000000000000 3"
b10001000100000000000000000000 G"
b10001000000000000000000000000 &"
b10001000000000000000000000000 B"
b10001000000000000000000000000 D"
b0 z
0p
0}
0@
b11 7
b11 w"
10
b10001000100010000000000000000 ,"
b10001000100010000000000000000 F"
b10001000100010000000000000000 J"
b100010001000100000000 6"
b100010001000100000000 A"
b10001000000000000000000000000 5"
b10001000000000000000000000000 @"
b0 %"
b0 ;"
b0 <"
b0 h
b0 y
b10001000100010000000000000000 l
b10001000100010000000000000000 x
1a
b0 A
b0 c
b0 d
06
b10001000100010000000000000000 C
b10001000100010000000000000000 n
b10001000100010000000000000000 s
b10001000100010000000000000000 v
b10001000100010000000000000000 ]"
b10001000100010000000000000000 +"
b10001000100010000000000000000 >"
b10001000100010000000000000000 C"
b0 7"
b0 9"
b100010001000100000000000000000 k
b100010001000100000000000000000 q
b100010001000100000000000000000 u
b100010001000100000000000000000 w
b10001000100010000000000000000 t
b0 j
b0 g
b10001000100010000000000000000 f
0X
b10001000100010000000000000000 9
b10001000100010000000000000000 ^"
b10001000100010000000000000000 o"
b10001000100010000000000000000 "#
b10001000100010000000000000000 B
b10001000100010000000000000000 m
b10001000100010000000000000000 r
b10001000100010000000000000000 $"
b10001000100010000000000000000 ?"
b10001000100010000000000000000 `"
b11 u"
b1 |"
b100010000110000010000000 =
b100010000110000010000000 l"
b1100000100000 ?
b1100000100000 _"
b110000010000000 ;
b110000010000000 b"
b0 4
b0 \"
b100000 L
b0 M
b10001000100010000000000000000 *
b10001000100010000000000000000 K
b10001000100010000000000000000 a"
b10001000100010000000000000000 !#
b10001000100010000000000000000 %#
b1100 <
b1100 f"
b1100 n"
b1000100001100000100000 "
b1000100001100000100000 )
b1000100001100000100000 G
b1000100001100000100000 )#
b110000010001100 E
b110000010001100 d"
b110000010001100 k"
b1100 :
b1100 e"
b1100 i"
b1100 p"
b1100 t"
b1000 $
b1000 ,
b1000 H
b1000 g"
b1000 q"
b1000 (#
1%
#300
0%
#350
00
b1 F
b1 b
b1 m"
b0 5
b0 h"
b0 {"
1/
b0 D
b0 j"
b0 y"
b0 #
b0 +
b0 I
b0 o
b0 {
b0 x"
b0 $#
b10 z
b10 A
b10 c
b10 d
13
0a
b0 .
b0 ~"
1]
b0 7
b0 w"
b0 u"
b100010000000000000000100 =
b100010000000000000000100 l"
b1 ?
b1 _"
b100 ;
b100 b"
b1 L
b100 M
b10100 <
b10100 f"
b10100 n"
b10000001000100000000000000001 "
b10000001000100000000000000001 )
b10000001000100000000000000001 G
b10000001000100000000000000001 )#
b10100 E
b10100 d"
b10100 k"
b10000 :
b10000 e"
b10000 i"
b10000 p"
b10000 t"
b1100 $
b1100 ,
b1100 H
b1100 g"
b1100 q"
b1100 (#
1%
#400
0%
#450
10
b10001000100010000000000000000 5
b10001000100010000000000000000 h"
b10001000100010000000000000000 {"
b10001000100010000000000000000 D
b10001000100010000000000000000 j"
b10001000100010000000000000000 y"
0/
b10001000100010000000000000000 #
b10001000100010000000000000000 +
b10001000100010000000000000000 I
b10001000100010000000000000000 o
b10001000100010000000000000000 {
b10001000100010000000000000000 x"
b10001000100010000000000000000 $#
b0 F
b0 b
b0 m"
b1 z
b1 A
b1 c
b1 d
03
1_
b101 .
b101 ~"
0]
b101 7
b101 w"
b11000 <
b11000 f"
b11000 n"
b101 u"
b100010001010000010010000 =
b100010001010000010010000 l"
b10100000100100 ?
b10100000100100 _"
b1010000010010000 ;
b1010000010010000 b"
b100100 L
b0 M
b1000100010100000100100 "
b1000100010100000100100 )
b1000100010100000100100 G
b1000100010100000100100 )#
b1010000010101000 E
b1010000010101000 d"
b1010000010101000 k"
b11000 :
b11000 e"
b11000 i"
b11000 p"
b11000 t"
b10100 $
b10100 ,
b10100 H
b10100 g"
b10100 q"
b10100 (#
1%
#500
0%
#550
00
b110011001100110000000000000000 5
b110011001100110000000000000000 h"
b110011001100110000000000000000 {"
b110011001100110000000000000000 D
b110011001100110000000000000000 j"
b110011001100110000000000000000 y"
b110011001100110000000000000000 #
b110011001100110000000000000000 +
b110011001100110000000000000000 I
b110011001100110000000000000000 o
b110011001100110000000000000000 {
b110011001100110000000000000000 x"
b110011001100110000000000000000 $#
b1 F
b1 b
b1 m"
b10 z
b110011001100110000000000000000 h
b110011001100110000000000000000 y
b0 l
b0 x
b10 A
b10 c
b10 d
b110011001100110000000000000000 g
b110011001100110000000000000000 f
b0 e
0_
13
b0 .
b0 ~"
b110011001100110000000000000000 k
b110011001100110000000000000000 q
b110011001100110000000000000000 u
b110011001100110000000000000000 w
b100010001000100000000000000000 C
b100010001000100000000000000000 n
b100010001000100000000000000000 s
b100010001000100000000000000000 v
b100010001000100000000000000000 ]"
1\
b0 7
b0 w"
b100010001000100000000000000000 9
b100010001000100000000000000000 ^"
b100010001000100000000000000000 o"
b100010001000100000000000000000 "#
b1 v"
b0 u"
b1 }"
b11 |"
b1100001000000000000000100 =
b1100001000000000000000100 l"
b1 ?
b1 _"
b100 ;
b100 b"
b1 L
b101 M
b100000 <
b100000 f"
b100000 n"
b10100011000010000000000000001 "
b10100011000010000000000000001 )
b10100011000010000000000000001 G
b10100011000010000000000000001 )#
b100000 E
b100000 d"
b100000 k"
b11100 :
b11100 e"
b11100 i"
b11100 p"
b11100 t"
b11000 $
b11000 ,
b11000 H
b11000 g"
b11000 q"
b11000 (#
1%
#600
0%
#650
b11101110111011101111111111111111 t
1p
1}
10
b10001000100010000000000000000 5
b10001000100010000000000000000 h"
b10001000100010000000000000000 {"
b10001000100010000000000000000 D
b10001000100010000000000000000 j"
b10001000100010000000000000000 y"
b0 F
b0 b
b0 m"
b10001000100010000000000000000 #
b10001000100010000000000000000 +
b10001000100010000000000000000 I
b10001000100010000000000000000 o
b10001000100010000000000000000 {
b10001000100010000000000000000 x"
b10001000100010000000000000000 $#
b1 z
b0 h
b0 y
b10001000100010000000000000000 l
b10001000100010000000000000000 x
b101 A
b101 c
b101 d
b0 g
b10001000100010000000000000000 f
b10001000100010000000000000000 e
1V
03
b110 .
b110 ~"
b0 k
b0 q
b0 u
b0 w
b10001000100010000000000000000 C
b10001000100010000000000000000 n
b10001000100010000000000000000 s
b10001000100010000000000000000 v
b10001000100010000000000000000 ]"
0\
b110 7
b110 w"
b10001000100010000000000000000 9
b10001000100010000000000000000 ^"
b10001000100010000000000000000 o"
b10001000100010000000000000000 "#
b100100 <
b100100 f"
b100100 n"
b10 v"
b110 u"
b10 }"
b1 |"
b100010001100000010010100 =
b100010001100000010010100 l"
b11000000100101 ?
b11000000100101 _"
b1100000010010100 ;
b1100000010010100 b"
b100101 L
b0 M
b1000100011000000100101 "
b1000100011000000100101 )
b1000100011000000100101 G
b1000100011000000100101 )#
b1100000010111000 E
b1100000010111000 d"
b1100000010111000 k"
b100100 :
b100100 e"
b100100 i"
b100100 p"
b100100 t"
b100000 $
b100000 ,
b100000 H
b100000 g"
b100000 q"
b100000 (#
1%
#700
0%
#750
10
b0 5
b0 h"
b0 {"
b0 D
b0 j"
b0 y"
1/
b0 #
b0 +
b0 I
b0 o
b0 {
b0 x"
b0 $#
b0 z
b100 A
b100 c
b100 d
1Q
0V
b100 .
b100 ~"
b100 7
b100 w"
b100 u"
b100010001000000010001000 =
b100010001000000010001000 l"
b10000000100010 ?
b10000000100010 _"
b1000000010001000 ;
b1000000010001000 b"
b100010 L
b101000 <
b101000 f"
b101000 n"
b1000100010000000100010 "
b1000100010000000100010 )
b1000100010000000100010 G
b1000100010000000100010 )#
b1000000010110000 E
b1000000010110000 d"
b1000000010110000 k"
b101000 :
b101000 e"
b101000 i"
b101000 p"
b101000 t"
b100100 $
b100100 ,
b100100 H
b100100 g"
b100100 q"
b100100 (#
1%
#800
0%
#850
b0 5
b0 h"
b0 {"
b0 D
b0 j"
b0 y"
b10 z
b10001000100010000000000000000 t
1/
b0 #
b0 +
b0 I
b0 o
b0 {
b0 x"
b0 $#
b100010001000100000000000000000 k
b100010001000100000000000000000 q
b100010001000100000000000000000 u
b100010001000100000000000000000 w
0p
0}
b10 A
b10 c
b10 d
0Q
1O
b11 .
b11 ~"
b11 7
b11 w"
b11 u"
b100010000110000010011000 =
b100010000110000010011000 l"
b1100000100110 ?
b1100000100110 _"
b110000010011000 ;
b110000010011000 b"
b100110 L
b101100 <
b101100 f"
b101100 n"
b1000100001100000100110 "
b1000100001100000100110 )
b1000100001100000100110 G
b1000100001100000100110 )#
b110000011000100 E
b110000011000100 d"
b110000011000100 k"
b101100 :
b101100 e"
b101100 i"
b101100 p"
b101100 t"
b101000 $
b101000 ,
b101000 H
b101000 g"
b101000 q"
b101000 (#
1%
#900
0%
#950
b10001000100010000000000000000000 )"
b10001000100010000000000000000000 W"
b10001000100010000000000000000000 Y"
b1000100010001000000000000000000 i
b1000100010001000000000000000000 |
b1000100010001000000000000000000 *"
b1000100010001000000000000000000 ["
b100010001000100000000000000000 0"
b100010001000100000000000000000 V"
b10001000100010000000000000000000 /"
b10001000100010000000000000000000 U"
b1000100010001000000000000000000 5
b1000100010001000000000000000000 h"
b1000100010001000000000000000000 {"
b11 z
b1000100010001000000000000000000 ."
b1000100010001000000000000000000 T"
b1000100010001000000000000000000 X"
b1000100010001000000000000000000 D
b1000100010001000000000000000000 j"
b1000100010001000000000000000000 y"
b11 A
b11 c
b11 d
1S"
0/
b1000100010001000000000000000000 #
b1000100010001000000000000000000 +
b1000100010001000000000000000000 I
b1000100010001000000000000000000 o
b1000100010001000000000000000000 {
b1000100010001000000000000000000 x"
b1000100010001000000000000000000 $#
b10 !"
b10001000100010000000000000010 f
12
b10001000100010000000000000010 h
b10001000100010000000000000010 y
b0 l
b0 x
b10001000100010000000000000010 g
b0 e
0O
1T
b10001000100010000000000000010 k
b10001000100010000000000000010 q
b10001000100010000000000000010 u
b10001000100010000000000000010 w
b10 C
b10 n
b10 s
b10 v
b10 ]"
b0 9
b0 ^"
b0 o"
b0 "#
b0 |"
b10000110001000000000 =
b10000110001000000000 l"
b1100010000000 ?
b1100010000000 _"
b110001000000000 ;
b110001000000000 b"
b10 4
b10 \"
b0 L
b110000 <
b110000 f"
b110000 n"
b100001100010000000 "
b100001100010000000 )
b100001100010000000 G
b100001100010000000 )#
b110001000110000 E
b110001000110000 d"
b110001000110000 k"
b110000 :
b110000 e"
b110000 i"
b110000 p"
b110000 t"
b101100 $
b101100 ,
b101100 H
b101100 g"
b101100 q"
b101100 (#
1%
#1000
0%
#1050
b10001000100010000000000000010 l
b10001000100010000000000000010 x
b0 h
b0 y
b11101110111011101111111111111111 t
b11101110111011110000000000000010 k
b11101110111011110000000000000010 q
b11101110111011110000000000000010 u
b11101110111011110000000000000010 w
1p
1}
b111 A
b111 c
b111 d
0T
1R
b10000110001000001000 =
b10000110001000001000 l"
b1100010000010 ?
b1100010000010 _"
b110001000001000 ;
b110001000001000 b"
b10 L
b110100 <
b110100 f"
b110100 n"
b100001100010000010 "
b100001100010000010 )
b100001100010000010 G
b100001100010000010 )#
b110001000111100 E
b110001000111100 d"
b110001000111100 k"
b110100 :
b110100 e"
b110100 i"
b110100 p"
b110100 t"
b110000 $
b110000 ,
b110000 H
b110000 g"
b110000 q"
b110000 (#
1%
#1100
0%
#1150
b100010001000100000000000000 5
b100010001000100000000000000 h"
b100010001000100000000000000 {"
b100010001000100000000000000 D
b100010001000100000000000000 j"
b100010001000100000000000000 y"
b100010001000100000000000000 #
b100010001000100000000000000 +
b100010001000100000000000000 I
b100010001000100000000000000 o
b100010001000100000000000000 {
b100010001000100000000000000 x"
b100010001000100000000000000 $#
b100010001000100000000000000 i
b100010001000100000000000000 |
b100010001000100000000000000 *"
b100010001000100000000000000 ["
b10001000100010000000000000 0"
b10001000100010000000000000 V"
b1000100010001000000000000000 /"
b1000100010001000000000000000 U"
b100010001000100000000000000 ."
b100010001000100000000000000 T"
b100010001000100000000000000 X"
b1000100010001 %"
b1000100010001 ;"
b1000100010001 <"
b100010001000100000000 &"
b100010001000100000000 B"
b100010001000100000000 D"
b1000100010001000000000000 '"
b1000100010001000000000000 I"
b1000100010001000000000000 K"
b100010001000100000000000000 ("
b100010001000100000000000000 P"
b100010001000100000000000000 R"
b10001000100010000000000000 )"
b10001000100010000000000000 W"
b10001000100010000000000000 Y"
1~
0R
b1111 A
b1111 c
b1111 d
1S
b10000110001000001100 =
b10000110001000001100 l"
b1100010000011 ?
b1100010000011 _"
b110001000001100 ;
b110001000001100 b"
b11 L
b111000 <
b111000 f"
b111000 n"
b100001100010000011 "
b100001100010000011 )
b100001100010000011 G
b100001100010000011 )#
b110001001000100 E
b110001001000100 d"
b110001001000100 k"
b111000 :
b111000 e"
b111000 i"
b111000 p"
b111000 t"
b110100 $
b110100 ,
b110100 H
b110100 g"
b110100 q"
b110100 (#
1%
#1200
0%
