test.vcd
$date
	Tue Dec 11 16:02:04 2018
$end
$version
	Icarus Verilog
$end
$timescale
	1s
$end
$scope module test_main $end
$var wire 32 ! pc [31:0] $end
$var wire 32 " memout [31:0] $end
$var wire 32 # inst [31:0] $end
$var wire 32 $ aluout [31:0] $end
$var reg 1 % Clock $end
$var reg 1 & Reset $end
$scope module main $end
$var wire 1 % Clk $end
$var wire 1 & Clrn $end
$var wire 1 ' wmem $end
$var wire 32 ( pc [31:0] $end
$var wire 32 ) memout [31:0] $end
$var wire 32 * inst [31:0] $end
$var wire 32 + data [31:0] $end
$var wire 32 , aluout [31:0] $end
$scope module cpu $end
$var wire 1 % Clk $end
$var wire 1 & Clrn $end
$var wire 1 - e $end
$var wire 5 . wn [4:0] $end
$var wire 1 / zero $end
$var wire 1 0 wreg $end
$var wire 1 1 shift $end
$var wire 1 2 se $end
$var wire 32 3 sa [31:0] $end
$var wire 32 4 res [31:0] $end
$var wire 1 5 regrt $end
$var wire 5 6 reg_dest [4:0] $end
$var wire 1 7 reg2reg $end
$var wire 32 8 ra [31:0] $end
$var wire 32 9 p4 [31:0] $end
$var wire 32 : offset [31:0] $end
$var wire 32 ; npc [31:0] $end
$var wire 32 < jpc [31:0] $end
$var wire 1 = jal $end
$var wire 32 > immdiate [31:0] $end
$var wire 16 ? imm [15:0] $end
$var wire 1 @ aluqb $end
$var wire 4 A aluc [3:0] $end
$var wire 32 B alub [31:0] $end
$var wire 32 C alua [31:0] $end
$var wire 32 D alu_mem [31:0] $end
$var wire 32 E adr [31:0] $end
$var wire 1 ' Wmem $end
$var wire 2 F Pcsrc [1:0] $end
$var wire 32 G Inst [31:0] $end
$var wire 32 H Iaddr [31:0] $end
$var wire 32 I Dwirte [31:0] $end
$var wire 32 J Dread [31:0] $end
$var wire 32 K Daddr [31:0] $end
$scope module CU $end
$var wire 1 @ Aluqb $end
$var wire 6 L Func [5:0] $end
$var wire 6 M Op [5:0] $end
$var wire 1 7 Reg2reg $end
$var wire 1 5 Regrt $end
$var wire 1 2 Se $end
$var wire 1 1 Shift $end
$var wire 1 ' Wmem $end
$var wire 1 0 Wreg $end
$var wire 1 = jal $end
$var wire 1 N i_xori $end
$var wire 1 O i_xor $end
$var wire 1 P i_sw $end
$var wire 1 Q i_sub $end
$var wire 1 R i_srl $end
$var wire 1 S i_sra $end
$var wire 1 T i_sll $end
$var wire 1 U i_ori $end
$var wire 1 V i_or $end
$var wire 1 W i_lw $end
$var wire 1 X i_lui $end
$var wire 1 Y i_jr $end
$var wire 1 Z i_jal $end
$var wire 1 [ i_j $end
$var wire 1 \ i_bne $end
$var wire 1 ] i_beq $end
$var wire 1 ^ i_andi $end
$var wire 1 _ i_and $end
$var wire 1 ` i_addi $end
$var wire 1 a i_add $end
$var wire 1 / Z $end
$var wire 2 b Pcsrc [1:0] $end
$var wire 4 c Aluc [3:0] $end
$upscope $end
$scope module alu $end
$var wire 4 d Aluc [3:0] $end
$var wire 32 e d_and [31:0] $end
$var wire 32 f d_or [31:0] $end
$var wire 32 g d_xor [31:0] $end
$var wire 32 h d_xor_lui [31:0] $end
$var wire 32 i d_sh [31:0] $end
$var wire 32 j d_lui [31:0] $end
$var wire 32 k d_as [31:0] $end
$var wire 32 l d_and_or [31:0] $end
$var wire 1 / Z $end
$var wire 32 m Y [31:0] $end
$var wire 32 n X [31:0] $end
$var wire 32 o R [31:0] $end
$scope module as32 $end
$var wire 1 p sub $end
$var wire 32 q Result [31:0] $end
$var wire 32 r B [31:0] $end
$var wire 32 s A [31:0] $end
$scope module as32 $end
$var wire 32 t b [31:0] $end
$var wire 1 p c $end
$var wire 32 u s [31:0] $end
$var wire 32 v a [31:0] $end
$upscope $end
$upscope $end
$scope module sel $end
$var wire 32 w A0 [31:0] $end
$var wire 32 x A1 [31:0] $end
$var wire 32 y A2 [31:0] $end
$var wire 2 z S [1:0] $end
$var wire 32 { Y [31:0] $end
$var wire 32 | A3 [31:0] $end
$scope function select $end
$var reg 32 } A0 [31:0] $end
$var reg 32 ~ A1 [31:0] $end
$var reg 32 !" A2 [31:0] $end
$var reg 32 "" A3 [31:0] $end
$var reg 2 #" S [1:0] $end
$var reg 32 $" select [31:0] $end
$upscope $end
$upscope $end
$scope module shift_1 $end
$var wire 1 %" Arith $end
$var wire 1 &" Right $end
$var wire 5 '" Sa [4:0] $end
$var wire 32 (" D [31:0] $end
$var reg 32 )" O [31:0] $end
$upscope $end
$upscope $end
$scope module alu_a $end
$var wire 32 *" A1 [31:0] $end
$var wire 1 1 S $end
$var wire 32 +" Y [31:0] $end
$var wire 32 ," A0 [31:0] $end
$upscope $end
$scope module alu_b $end
$var wire 32 -" A1 [31:0] $end
$var wire 1 @ S $end
$var wire 32 ." Y [31:0] $end
$var wire 32 /" A0 [31:0] $end
$upscope $end
$scope module br_adr $end
$var wire 32 0" b [31:0] $end
$var wire 1 1" c $end
$var wire 32 2" s [31:0] $end
$var wire 32 3" a [31:0] $end
$upscope $end
$scope module ip $end
$var wire 1 % Clock $end
$var wire 1 & Reset $end
$var wire 32 4" D [31:0] $end
$var reg 32 5" Q [31:0] $end
$upscope $end
$scope module link $end
$var wire 1 = S $end
$var wire 32 6" Y [31:0] $end
$var wire 32 7" A1 [31:0] $end
$var wire 32 8" A0 [31:0] $end
$upscope $end
$scope module nextpc $end
$var wire 32 9" A1 [31:0] $end
$var wire 32 :" A3 [31:0] $end
$var wire 2 ;" S [1:0] $end
$var wire 32 <" Y [31:0] $end
$var wire 32 =" A2 [31:0] $end
$var wire 32 >" A0 [31:0] $end
$scope function select $end
$var reg 32 ?" A0 [31:0] $end
$var reg 32 @" A1 [31:0] $end
$var reg 32 A" A2 [31:0] $end
$var reg 32 B" A3 [31:0] $end
$var reg 2 C" S [1:0] $end
$var reg 32 D" select [31:0] $end
$upscope $end
$upscope $end
$scope module pcplus4 $end
$var wire 32 E" a [31:0] $end
$var wire 32 F" b [31:0] $end
$var wire 1 G" c $end
$var wire 32 H" s [31:0] $end
$upscope $end
$scope module reg_wn $end
$var wire 5 I" A0 [4:0] $end
$var wire 5 J" A1 [4:0] $end
$var wire 1 5 S $end
$var wire 5 K" Y [4:0] $end
$upscope $end
$scope module res_mem $end
$var wire 32 L" A0 [31:0] $end
$var wire 1 7 S $end
$var wire 32 M" Y [31:0] $end
$var wire 32 N" A1 [31:0] $end
$upscope $end
$scope module rf $end
$var wire 1 % Clk $end
$var wire 1 & Clrn $end
$var wire 32 O" D [31:0] $end
$var wire 5 P" Ra [4:0] $end
$var wire 5 Q" Rb [4:0] $end
$var wire 1 0 We $end
$var wire 5 R" Wr [4:0] $end
$var wire 32 S" Qb [31:0] $end
$var wire 32 T" Qa [31:0] $end
$var integer 32 U" i [31:0] $end
$upscope $end
$upscope $end
$scope module dmem $end
$var wire 1 % Clk $end
$var wire 32 V" addr [31:0] $end
$var wire 32 W" datain [31:0] $end
$var wire 32 X" dataout [31:0] $end
$var wire 1 ' we $end
$var integer 32 Y" i [31:0] $end
$upscope $end
$scope module imem $end
$var wire 32 Z" address [31:0] $end
$var wire 32 [" inst [31:0] $end
$upscope $end
$upscope $end
$upscope $end
$enddefinitions $end
#0
$dumpvars
b111100000000010001001000110100 ["
b0 Z"
b100000 Y"
b0 X"
b0 W"
b10010001101000000000000000000 V"
b100000 U"
b0 T"
b0 S"
b1 R"
b1 Q"
b0 P"
b10010001101000000000000000000 O"
b0 N"
b10010001101000000000000000000 M"
b10010001101000000000000000000 L"
b1 K"
b1 J"
b10 I"
b100 H"
0G"
b100 F"
b0 E"
b100 D"
b0 C"
b1000100100011010000 B"
b0 A"
b100100011010100 @"
b100 ?"
b100 >"
b0 ="
b100 <"
b0 ;"
b1000100100011010000 :"
b100100011010100 9"
b10010001101000000000000000000 8"
b100 7"
b10010001101000000000000000000 6"
b0 5"
b100 4"
b100 3"
b100100011010100 2"
01"
b100100011010000 0"
b0 /"
b1001000110100 ."
b1001000110100 -"
b0 ,"
b0 +"
b1000 *"
b1001000110100 )"
b1001000110100 ("
b0 '"
1&"
0%"
b10010001101000000000000000000 $"
b10 #"
b1001000110100 ""
b10010001101000000000000000000 !"
b1001000110100 ~
b11111111111111111110110111001100 }
b1001000110100 |
b10010001101000000000000000000 {
b10 z
b10010001101000000000000000000 y
b1001000110100 x
b11111111111111111110110111001100 w
b0 v
b11111111111111111110110111001100 u
b11111111111111111110110111001011 t
b0 s
b1001000110100 r
b11111111111111111110110111001100 q
1p
b10010001101000000000000000000 o
b0 n
b1001000110100 m
b1001000110100 l
b11111111111111111110110111001100 k
b10010001101000000000000000000 j
b1001000110100 i
b10010001101000000000000000000 h
b1001000110100 g
b1001000110100 f
b0 e
b110 d
b110 c
b0 b
0a
0`
0_
0^
0]
0\
0[
0Z
0Y
1X
0W
0V
0U
0T
0S
0R
0Q
0P
0O
0N
b1111 M
b110100 L
b0 K
b0 J
b10010001101000000000000000000 I
b0 H
b111100000000010001001000110100 G
b0 F
b100100011010100 E
b10010001101000000000000000000 D
b0 C
b1001000110100 B
b110 A
1@
b0 ?
b1001000110100 >
0=
b1000100100011010000 <
b100 ;
b100100011010000 :
b100 9
b0 8
07
b1 6
15
b10010001101000000000000000000 4
b1000 3
02
01
10
0/
b1 .
0-
b10010001101000000000000000000 ,
b0 +
b111100000000010001001000110100 *
b0 )
b0 (
0'
0&
0%
b10010001101000000000000000000 $
b111100000000010001001000110100 #
b0 "
b0 !
$end
#50
b100000 U"
1%
#100
1&
0%
#150
b10010001101000101011001111000 4
b10010001101000101011001111000 6"
b10010001101000101011001111000 O"
b0 e
0/
b10010001101000101011001111000 D
b10010001101000101011001111000 8"
b10010001101000101011001111000 M"
b1110000100 "
b1110000100 )
b1110000100 J
b1110000100 N"
b1110000100 X"
b1 .
b1 R"
b10010001101000101011001111000 $
b10010001101000101011001111000 ,
b10010001101000101011001111000 I
b10010001101000101011001111000 o
b10010001101000101011001111000 {
b10010001101000101011001111000 L"
b10010001101000101011001111000 V"
b10010001101000101011001111000 $"
b1 #"
b1010110011110000000000000000000 !"
b10010001101000101011001111000 ~
b1 z
1p
1&"
1@
b1 6
b1 K"
10
b1010110011110000000000000000000 h
b1010110011110000000000000000000 y
b10010001101000101011001111000 l
b10010001101000101011001111000 x
b101011001111000 ""
b10010001100111010100110001000 }
b101 A
b101 c
b101 d
15
b10010001101000000000000000000 A"
b10010001101000000000000000000 C
b10010001101000000000000000000 n
b10010001101000000000000000000 s
b10010001101000000000000000000 v
b10010001101000000000000000000 +"
b10010001100111010100110001000 k
b10010001100111010100110001000 q
b10010001100111010100110001000 u
b10010001100111010100110001000 w
b11111111111111111010100110000111 t
b1010110011110000000000000000000 j
b10010001101000101011001111000 g
b10010001101000101011001111000 f
b101011001111000 i
b101011001111000 |
b101011001111000 )"
1U
0X
b10010001101000000000000000000 8
b10010001101000000000000000000 ,"
b10010001101000000000000000000 ="
b10010001101000000000000000000 T"
b101011001111000 B
b101011001111000 m
b101011001111000 r
b101011001111000 ("
b101011001111000 ."
b100001010101100111100000 B"
b1010 I"
b1 P"
b101011001111000 >
b101011001111000 -"
b111000 L
b1101 M
b100001010101100111100000 <
b100001010101100111100000 :"
b10101100111100000 :
b10101100111100000 0"
b11001 3
b11001 *"
b1000 ;
b1000 4"
b1000 <"
b1000 D"
b10101100111101000 @"
b1000 ?"
b110100001000010101011001111000 #
b110100001000010101011001111000 *
b110100001000010101011001111000 G
b110100001000010101011001111000 ["
b10010001101000000000000000000 +
b10010001101000000000000000000 K
b10010001101000000000000000000 /"
b10010001101000000000000000000 S"
b10010001101000000000000000000 W"
b10101100111101000 E
b10101100111101000 2"
b10101100111101000 9"
b1000 9
b1000 3"
b1000 7"
b1000 >"
b1000 H"
b100 !
b100 (
b100 H
b100 5"
b100 E"
b100 Z"
1%
#200
0%
#250
b0 "
b0 )
b0 J
b0 N"
b0 X"
b10101010101010100000000000000000 4
b10101010101010100000000000000000 6"
b10101010101010100000000000000000 O"
b10 #"
b10101010101010100000000000000000 !"
b10101010101010100000000000000000 D
b10101010101010100000000000000000 8"
b10101010101010100000000000000000 M"
b10 z
b10101010101010100000000000000000 h
b10101010101010100000000000000000 y
b10101010101010100000000000000000 $
b10101010101010100000000000000000 ,
b10101010101010100000000000000000 I
b10101010101010100000000000000000 o
b10101010101010100000000000000000 {
b10101010101010100000000000000000 L"
b10101010101010100000000000000000 V"
b10101010101010100000000000000000 $"
b1010101010101010 ""
b1010101010101010 ~
b110 A
b110 c
b110 d
b1010101010101010 l
b1010101010101010 x
b10 .
b10 R"
b11111111111111110101010101010101 t
b10101010101010100000000000000000 j
b1010101010101010 i
b1010101010101010 |
b1010101010101010 )"
0U
1X
b11111111111111110101010101010110 }
b0 '"
b1010101010101010 g
b1010101010101010 f
b0 e
b10 6
b10 K"
b1010101010101010 B
b1010101010101010 m
b1010101010101010 r
b1010101010101010 ("
b1010101010101010 ."
b10101010101010101000 B"
b0 A"
b11111111111111110101010101010110 k
b11111111111111110101010101010110 q
b11111111111111110101010101010110 u
b11111111111111110101010101010110 w
b0 C
b0 n
b0 s
b0 v
b0 +"
b10 J"
b10101 I"
b10 Q"
b0 P"
b1010101010101010 >
b1010101010101010 -"
b101010 L
b1111 M
b10101010101010101000 <
b10101010101010101000 :"
b101010101010101000 :
b101010101010101000 0"
b1010 3
b1010 *"
b0 8
b0 ,"
b0 ="
b0 T"
b0 +
b0 K
b0 /"
b0 S"
b0 W"
b1100 ;
b1100 4"
b1100 <"
b1100 D"
b101010101010110100 @"
b1100 ?"
b111100000000101010101010101010 #
b111100000000101010101010101010 *
b111100000000101010101010101010 G
b111100000000101010101010101010 ["
b101010101010110100 E
b101010101010110100 2"
b101010101010110100 9"
b1100 9
b1100 3"
b1100 7"
b1100 >"
b1100 H"
b1000 !
b1000 (
b1000 H
b1000 5"
b1000 E"
b1000 Z"
1%
#300
0%
#350
b10101010101010101011101110111011 4
b10101010101010101011101110111011 6"
b10101010101010101011101110111011 O"
b0 e
0/
b10101010101010101011101110111011 D
b10101010101010101011101110111011 8"
b10101010101010101011101110111011 M"
b11000100 "
b11000100 )
b11000100 J
b11000100 N"
b11000100 X"
b10 .
b10 R"
b10101010101010101011101110111011 $
b10101010101010101011101110111011 ,
b10101010101010101011101110111011 I
b10101010101010101011101110111011 o
b10101010101010101011101110111011 {
b10101010101010101011101110111011 L"
b10101010101010101011101110111011 V"
b10101010101010101011101110111011 $"
b1 #"
b10111011101110110000000000000000 !"
b10101010101010101011101110111011 ~
b1 z
1p
1&"
1@
b10 6
b10 K"
10
b10111011101110110000000000000000 h
b10111011101110110000000000000000 y
b10101010101010101011101110111011 l
b10101010101010101011101110111011 x
b1011101110111011 ""
b10101010101010010100010001000101 }
b101 A
b101 c
b101 d
15
b10101010101010100000000000000000 A"
b10101010101010100000000000000000 C
b10101010101010100000000000000000 n
b10101010101010100000000000000000 s
b10101010101010100000000000000000 v
b10101010101010100000000000000000 +"
b10101010101010010100010001000101 k
b10101010101010010100010001000101 q
b10101010101010010100010001000101 u
b10101010101010010100010001000101 w
b11111111111111110100010001000100 t
b10111011101110110000000000000000 j
b10101010101010101011101110111011 g
b10101010101010101011101110111011 f
b1011101110111011 i
b1011101110111011 |
b1011101110111011 )"
1U
0X
b10101010101010100000000000000000 8
b10101010101010100000000000000000 ,"
b10101010101010100000000000000000 ="
b10101010101010100000000000000000 T"
b1011101110111011 B
b1011101110111011 m
b1011101110111011 r
b1011101110111011 ("
b1011101110111011 ."
b1000010101110111011101100 B"
b10111 I"
b10 P"
b1011101110111011 >
b1011101110111011 -"
b111011 L
b1101 M
b1000010101110111011101100 <
b1000010101110111011101100 :"
b101110111011101100 :
b101110111011101100 0"
b1110 3
b1110 *"
b10000 ;
b10000 4"
b10000 <"
b10000 D"
b101110111011111100 @"
b10000 ?"
b110100010000101011101110111011 #
b110100010000101011101110111011 *
b110100010000101011101110111011 G
b110100010000101011101110111011 ["
b10101010101010100000000000000000 +
b10101010101010100000000000000000 K
b10101010101010100000000000000000 /"
b10101010101010100000000000000000 S"
b10101010101010100000000000000000 W"
b101110111011111100 E
b101110111011111100 2"
b101110111011111100 9"
b10000 9
b10000 3"
b10000 7"
b10000 >"
b10000 H"
b1100 !
b1100 (
b1100 H
b1100 5"
b1100 E"
b1100 Z"
1%
#400
0%
#450
b11 .
b11 R"
10
0@
b11 6
b11 K"
b10111100110111110001001000110011 4
b10111100110111110001001000110011 6"
b10111100110111110001001000110011 O"
05
b10001000000001001000111000 ~
b10111100110111110001001000110011 D
b10111100110111110001001000110011 8"
b10111100110111110001001000110011 M"
b10010000 "
b10010000 )
b10010000 J
b10010000 N"
b10010000 X"
0p
0&"
b10001000000001001000111000 l
b10001000000001001000111000 x
b10111100110111110001001000110011 $
b10111100110111110001001000110011 ,
b10111100110111110001001000110011 I
b10111100110111110001001000110011 o
b10111100110111110001001000110011 {
b10111100110111110001001000110011 L"
b10111100110111110001001000110011 V"
b10111100110111110001001000110011 $"
b0 #"
b10111000100111101110110111000011 !"
b0 z
b10111010101111101111111111111011 f
b10111000100111101110110111000011 h
b10111000100111101110110111000011 y
b10111011000000000000000000000000 ""
1a
b0 A
b0 c
b0 d
b10101010101010101011101110111011 t
b10111011101110110000000000000000 j
b10111011000000000000000000000000 i
b10111011000000000000000000000000 |
b10111011000000000000000000000000 )"
0U
b10111100110111110001001000110011 }
b11000 '"
b10111000100111101110110111000011 g
b10001000000001001000111000 e
b10101010101010101011101110111011 B
b10101010101010101011101110111011 m
b10101010101010101011101110111011 r
b10101010101010101011101110111011 ("
b10101010101010101011101110111011 ."
b100010000110000010000000 B"
b10010001101000101011001111000 A"
b10111100110111110001001000110011 k
b10111100110111110001001000110011 q
b10111100110111110001001000110011 u
b10111100110111110001001000110011 w
b10010001101000101011001111000 C
b10010001101000101011001111000 n
b10010001101000101011001111000 s
b10010001101000101011001111000 v
b10010001101000101011001111000 +"
b11 I"
b1 P"
b1100000100000 >
b1100000100000 -"
b100000 L
b0 M
b100010000110000010000000 <
b100010000110000010000000 :"
b110000010000000 :
b110000010000000 0"
b0 3
b0 *"
b10010001101000101011001111000 8
b10010001101000101011001111000 ,"
b10010001101000101011001111000 ="
b10010001101000101011001111000 T"
b10101010101010101011101110111011 +
b10101010101010101011101110111011 K
b10101010101010101011101110111011 /"
b10101010101010101011101110111011 S"
b10101010101010101011101110111011 W"
b10100 ;
b10100 4"
b10100 <"
b10100 D"
b110000010010100 @"
b10100 ?"
b1000100001100000100000 #
b1000100001100000100000 *
b1000100001100000100000 G
b1000100001100000100000 ["
b110000010010100 E
b110000010010100 2"
b110000010010100 9"
b10100 9
b10100 3"
b10100 7"
b10100 >"
b10100 H"
b10000 !
b10000 (
b10000 H
b10000 5"
b10000 E"
b10000 Z"
1%
#500
0%
#550
b1100111100010011001101010111101 4
b1100111100010011001101010111101 6"
b1100111100010011001101010111101 O"
b10111011101110110000000000000000 !"
b10111010101111101111111111111011 ~
b1100111100010011001101010111101 D
b1100111100010011001101010111101 8"
b1100111100010011001101010111101 M"
b11100001 "
b11100001 )
b11100001 J
b11100001 N"
b11100001 X"
b10111010101111101111111111111011 l
b10111010101111101111111111111011 x
b10111011101110110000000000000000 h
b10111011101110110000000000000000 y
b1010101010101010100010001000100 t
b1100111100010011001101010111101 $
b1100111100010011001101010111101 ,
b1100111100010011001101010111101 I
b1100111100010011001101010111101 o
b1100111100010011001101010111101 {
b1100111100010011001101010111101 L"
b1100111100010011001101010111101 V"
b1100111100010011001101010111101 $"
b10101010 ""
b1100111100010011001101010111101 }
b10101010 i
b10101010 |
b10101010 )"
b1100111100010011001101010111101 k
b1100111100010011001101010111101 q
b1100111100010011001101010111101 u
b1100111100010011001101010111101 w
1p
1&"
b100 A
b100 c
b100 d
0a
1Q
b100010000110000010001000 B"
b1100000100010 >
b1100000100010 -"
b100010 L
b100010000110000010001000 <
b100010000110000010001000 :"
b110000010001000 :
b110000010001000 0"
b11000 ;
b11000 4"
b11000 <"
b11000 D"
b110000010100000 @"
b11000 ?"
b1000100001100000100010 #
b1000100001100000100010 *
b1000100001100000100010 G
b1000100001100000100010 ["
b110000010100000 E
b110000010100000 2"
b110000010100000 9"
b11000 9
b11000 3"
b11000 7"
b11000 >"
b11000 H"
b10100 !
b10100 (
b10100 H
b10100 5"
b10100 E"
b10100 Z"
1%
#600
0%
#650
b10001000000001001000111000 4
b10001000000001001000111000 6"
b10001000000001001000111000 O"
b10111000100111101110110111000011 !"
b10001000000001001000111000 ~
b10001000000001001000111000 D
b10001000000001001000111000 8"
b10001000000001001000111000 M"
b11000100 "
b11000100 )
b11000100 J
b11000100 N"
b11000100 X"
b10001000000001001000111000 l
b10001000000001001000111000 x
b10111000100111101110110111000011 h
b10111000100111101110110111000011 y
b10101010101010101011101110111011 t
b10001000000001001000111000 $
b10001000000001001000111000 ,
b10001000000001001000111000 I
b10001000000001001000111000 o
b10001000000001001000111000 {
b10001000000001001000111000 L"
b10001000000001001000111000 V"
b10001000000001001000111000 $"
b1 #"
b10111011000000000000000000000000 ""
b10111100110111110001001000110011 }
b10111011000000000000000000000000 i
b10111011000000000000000000000000 |
b10111011000000000000000000000000 )"
b1 z
b10111100110111110001001000110011 k
b10111100110111110001001000110011 q
b10111100110111110001001000110011 u
b10111100110111110001001000110011 w
0p
0&"
b1 A
b1 c
b1 d
0Q
1_
b100010000110000010010000 B"
b1100000100100 >
b1100000100100 -"
b100100 L
b100010000110000010010000 <
b100010000110000010010000 :"
b110000010010000 :
b110000010010000 0"
b11100 ;
b11100 4"
b11100 <"
b11100 D"
b110000010101100 @"
b11100 ?"
b1000100001100000100100 #
b1000100001100000100100 *
b1000100001100000100100 G
b1000100001100000100100 ["
b110000010101100 E
b110000010101100 2"
b110000010101100 9"
b11100 9
b11100 3"
b11100 7"
b11100 >"
b11100 H"
b11000 !
b11000 (
b11000 H
b11000 5"
b11000 E"
b11000 Z"
1%
#700
0%
#750
b10111010101111101111111111111011 4
b10111010101111101111111111111011 6"
b10111010101111101111111111111011 O"
b10111010101111101111111111111011 D
b10111010101111101111111111111011 8"
b10111010101111101111111111111011 M"
b1110000100 "
b1110000100 )
b1110000100 J
b1110000100 N"
b1110000100 X"
b10111010101111101111111111111011 $
b10111010101111101111111111111011 ,
b10111010101111101111111111111011 I
b10111010101111101111111111111011 o
b10111010101111101111111111111011 {
b10111010101111101111111111111011 L"
b10111010101111101111111111111011 V"
b10111010101111101111111111111011 $"
b10111011101110110000000000000000 !"
b10111010101111101111111111111011 ~
b10111010101111101111111111111011 l
b10111010101111101111111111111011 x
b10111011101110110000000000000000 h
b10111011101110110000000000000000 y
b1010101010101010100010001000100 t
b10101010 ""
b1100111100010011001101010111101 }
b10101010 i
b10101010 |
b10101010 )"
b1100111100010011001101010111101 k
b1100111100010011001101010111101 q
b1100111100010011001101010111101 u
b1100111100010011001101010111101 w
1p
1&"
b101 A
b101 c
b101 d
0_
1V
b100010000110000010010100 B"
b1100000100101 >
b1100000100101 -"
b100101 L
b100010000110000010010100 <
b100010000110000010010100 :"
b110000010010100 :
b110000010010100 0"
b100000 ;
b100000 4"
b100000 <"
b100000 D"
b110000010110100 @"
b100000 ?"
b1000100001100000100101 #
b1000100001100000100101 *
b1000100001100000100101 G
b1000100001100000100101 ["
b110000010110100 E
b110000010110100 2"
b110000010110100 9"
b100000 9
b100000 3"
b100000 7"
b100000 >"
b100000 H"
b11100 !
b11100 (
b11100 H
b11100 5"
b11100 E"
b11100 Z"
1%
#800
0%
#850
b10111000100111101110110111000011 4
b10111000100111101110110111000011 6"
b10111000100111101110110111000011 O"
b10111000100111101110110111000011 D
b10111000100111101110110111000011 8"
b10111000100111101110110111000011 M"
b100000000 "
b100000000 )
b100000000 J
b100000000 N"
b100000000 X"
b10111000100111101110110111000011 $
b10111000100111101110110111000011 ,
b10111000100111101110110111000011 I
b10111000100111101110110111000011 o
b10111000100111101110110111000011 {
b10111000100111101110110111000011 L"
b10111000100111101110110111000011 V"
b10111000100111101110110111000011 $"
b10 #"
b10111000100111101110110111000011 !"
b10001000000001001000111000 ~
b10 z
b10001000000001001000111000 l
b10001000000001001000111000 x
b10111000100111101110110111000011 h
b10111000100111101110110111000011 y
b10101010101010101011101110111011 t
b10111011000000000000000000000000 ""
b10111100110111110001001000110011 }
b10111011000000000000000000000000 i
b10111011000000000000000000000000 |
b10111011000000000000000000000000 )"
b10111100110111110001001000110011 k
b10111100110111110001001000110011 q
b10111100110111110001001000110011 u
b10111100110111110001001000110011 w
0p
0&"
b10 A
b10 c
b10 d
0V
1O
b100010000110000010011000 B"
b1100000100110 >
b1100000100110 -"
b100110 L
b100010000110000010011000 <
b100010000110000010011000 :"
b110000010011000 :
b110000010011000 0"
b100100 ;
b100100 4"
b100100 <"
b100100 D"
b110000010111100 @"
b100100 ?"
b1000100001100000100110 #
b1000100001100000100110 *
b1000100001100000100110 G
b1000100001100000100110 ["
b110000010111100 E
b110000010111100 2"
b110000010111100 9"
b100100 9
b100100 3"
b100100 7"
b100100 >"
b100100 H"
b100000 !
b100000 (
b100000 H
b100000 5"
b100000 E"
b100000 Z"
1%
#900
0%
#950
b11 #"
b11 z
b11 A
b11 c
b11 d
b10101010101010111011101110110000 4
b10101010101010111011101110110000 6"
b10101010101010111011101110110000 O"
b10101010101010111011101110110000 D
b10101010101010111011101110110000 8"
b10101010101010111011101110110000 M"
b10010000 "
b10010000 )
b10010000 J
b10010000 N"
b10010000 X"
b10101010101010111011101110110000 $
b10101010101010111011101110110000 ,
b10101010101010111011101110110000 I
b10101010101010111011101110110000 o
b10101010101010111011101110110000 {
b10101010101010111011101110110000 L"
b10101010101010111011101110110000 V"
b10101010101010111011101110110000 $"
b10101010101010111011101110110000 ""
b10101010101010101011101110111111 !"
b0 ~
11
b10101010101010111011101110110000 i
b10101010101010111011101110110000 |
b10101010101010111011101110110000 )"
b10101010101010101011101110111111 h
b10101010101010101011101110111111 y
b0 l
b0 x
b10101010101010101011101110111111 }
b100 '"
b10101010101010101011101110111111 g
b10101010101010101011101110111111 f
b0 e
0O
1T
b0 A"
b10101010101010101011101110111111 k
b10101010101010101011101110111111 q
b10101010101010101011101110111111 u
b10101010101010101011101110111111 w
b100 C
b100 n
b100 s
b100 v
b100 +"
b0 8
b0 ,"
b0 ="
b0 T"
b10000110010000000000 B"
b0 P"
b1100100000000 >
b1100100000000 -"
b0 L
b10000110010000000000 <
b10000110010000000000 :"
b110010000000000 :
b110010000000000 0"
b100 3
b100 *"
b101000 ;
b101000 4"
b101000 <"
b101000 D"
b110010000101000 @"
b101000 ?"
b100001100100000000 #
b100001100100000000 *
b100001100100000000 G
b100001100100000000 ["
b110010000101000 E
b110010000101000 2"
b110010000101000 9"
b101000 9
b101000 3"
b101000 7"
b101000 >"
b101000 H"
b100100 !
b100100 (
b100100 H
b100100 5"
b100100 E"
b100100 Z"
1%
#1000
0%
#1050
b1010101010101010101110111011 4
b1010101010101010101110111011 6"
b1010101010101010101110111011 O"
b10111011101110110000000000000000 !"
b10101010101010101011101110111111 ~
b1010101010101010101110111011 D
b1010101010101010101110111011 8"
b1010101010101010101110111011 M"
b11000100 "
b11000100 )
b11000100 J
b11000100 N"
b11000100 X"
b10101010101010101011101110111111 l
b10101010101010101011101110111111 x
b10111011101110110000000000000000 h
b10111011101110110000000000000000 y
b1010101010101010100010001000100 t
b1010101010101010101110111011 $
b1010101010101010101110111011 ,
b1010101010101010101110111011 I
b1010101010101010101110111011 o
b1010101010101010101110111011 {
b1010101010101010101110111011 L"
b1010101010101010101110111011 V"
b1010101010101010101110111011 $"
b1010101010101010101110111011 ""
b1010101010101010100010001001001 }
b1010101010101010101110111011 i
b1010101010101010101110111011 |
b1010101010101010101110111011 )"
b1010101010101010100010001001001 k
b1010101010101010100010001001001 q
b1010101010101010100010001001001 u
b1010101010101010100010001001001 w
1p
1&"
b111 A
b111 c
b111 d
0T
1R
b10000110010000001000 B"
b1100100000010 >
b1100100000010 -"
b10 L
b10000110010000001000 <
b10000110010000001000 :"
b110010000001000 :
b110010000001000 0"
b101100 ;
b101100 4"
b101100 <"
b101100 D"
b110010000110100 @"
b101100 ?"
b100001100100000010 #
b100001100100000010 *
b100001100100000010 G
b100001100100000010 ["
b110010000110100 E
b110010000110100 2"
b110010000110100 9"
b101100 9
b101100 3"
b101100 7"
b101100 >"
b101100 H"
b101000 !
b101000 (
b101000 H
b101000 5"
b101000 E"
b101000 Z"
1%
#1100
0%
#1150
b11111010101010101010101110111011 4
b11111010101010101010101110111011 6"
b11111010101010101010101110111011 O"
b11111010101010101010101110111011 D
b11111010101010101010101110111011 8"
b11111010101010101010101110111011 M"
b11111010101010101010101110111011 $
b11111010101010101010101110111011 ,
b11111010101010101010101110111011 I
b11111010101010101010101110111011 o
b11111010101010101010101110111011 {
b11111010101010101010101110111011 L"
b11111010101010101010101110111011 V"
b11111010101010101010101110111011 $"
b11111010101010101010101110111011 ""
b11111010101010101010101110111011 i
b11111010101010101010101110111011 |
b11111010101010101010101110111011 )"
1%"
0R
b1111 A
b1111 c
b1111 d
1S
b10000110010000001100 B"
b1100100000011 >
b1100100000011 -"
b11 L
b10000110010000001100 <
b10000110010000001100 :"
b110010000001100 :
b110010000001100 0"
b110000 ;
b110000 4"
b110000 <"
b110000 D"
b110010000111100 @"
b110000 ?"
b100001100100000011 #
b100001100100000011 *
b100001100100000011 G
b100001100100000011 ["
b110010000111100 E
b110010000111100 2"
b110010000111100 9"
b110000 9
b110000 3"
b110000 7"
b110000 >"
b110000 H"
b101100 !
b101100 (
b101100 H
b101100 5"
b101100 E"
b101100 Z"
1%
#1200
0%
